{
  "streams": [
    {
      "title": "This is my first stream!",
      "description": "Look at this awesome stream I started!",
      "id": 1
    },
    {
      "title": "thii i ieeome",
      "description": "Dont worry, this is only a test",
      "userId": "10263781218516345334",
      "id": 3
    },
    {
      "title": "This is a new stream",
      "description": "hellow!!!!",
      "userId": "102637812185163453343",
      "id": 4
    },
    {
      "title": "This is awesome",
      "description": "adasodam",
      "userId": "102637812185163453343",
      "id": 5
    }
  ]
}